%YAML 1.1
%TAG !u! tag:unity3d.com,2011:
--- !u!1045 &1
EditorBuildSettings:
  m_ObjectHideFlags: 0
  serializedVersion: 2
  m_Scenes:
  - enabled: 1
    path: Assets/Scenes/LoginScene.unity
    guid: 7a2b0ae83dac401449b04e21185dc6ed
  - enabled: 1
    path: Assets/Scenes/LobbyScene.unity
    guid: bc4dbbdeb2432aa43a2918c6c5a6c835
  - enabled: 1
    path: Assets/Scenes/Maps/outpost on desert.unity
    guid: b42ca4c5c936383429d2318c931f7ad2
  m_configObjects: {}
